<?xml version="1.0" encoding="utf-8"?>
<!-- Generator: Adobe Illustrator 22.1.0, SVG Export Plug-In . SVG Version: 6.00 Build 0)  -->
<svg version="1.1" id="Layer_1" xmlns="http://www.w3.org/2000/svg" xmlns:xlink="http://www.w3.org/1999/xlink" x="0px" y="0px"
	 viewBox="0 0 640.1 512" style="enable-background:new 0 0 640.1 512;" xml:space="preserve">
<style type="text/css">
	.st0{fill:#3B78BD;}
</style>
<path class="st0" d="M123.1,438.9V73.1c0-23.3,18.9-42.2,42.2-42.2h309.4c23.3,0,42.2,18.9,42.2,42.2v365.7
	c0,23.3-18.9,42.2-42.2,42.2H165.3C142,481.1,123.1,462.1,123.1,438.9z M460.7,189.2V97.8c0-5.8-4.7-10.5-10.5-10.5H189.9
	c-5.8,0-10.5,4.7-10.5,10.5v91.4c0,5.8,4.7,10.5,10.5,10.5h260.2C455.9,199.7,460.7,195,460.7,189.2z M235.6,301.7v-35.2
	c0-5.8-4.7-10.5-10.5-10.5h-35.2c-5.8,0-10.5,4.7-10.5,10.5v35.2c0,5.8,4.7,10.5,10.5,10.5h35.2
	C230.9,312.3,235.6,307.5,235.6,301.7z M460.7,414.2V266.5c0-5.8-4.7-10.5-10.5-10.5H415c-5.8,0-10.5,4.7-10.5,10.5v147.7
	c0,5.8,4.7,10.5,10.5,10.5h35.2C455.9,424.8,460.7,420,460.7,414.2z M235.6,414.2v-35.2c0-5.8-4.7-10.5-10.5-10.5h-35.2
	c-5.8,0-10.5,4.7-10.5,10.5v35.2c0,5.8,4.7,10.5,10.5,10.5h35.2C230.9,424.8,235.6,420,235.6,414.2z M348.2,301.7v-35.2
	c0-5.8-4.7-10.5-10.5-10.5h-35.2c-5.8,0-10.5,4.7-10.5,10.5v35.2c0,5.8,4.7,10.5,10.5,10.5h35.2
	C343.4,312.3,348.2,307.5,348.2,301.7z M348.2,414.2v-35.2c0-5.8-4.7-10.5-10.5-10.5h-35.2c-5.8,0-10.5,4.7-10.5,10.5v35.2
	c0,5.8,4.7,10.5,10.5,10.5h35.2C343.4,424.8,348.2,420,348.2,414.2z"/>
</svg>
